Car Evaluation data
…
## The following objects are masked from 'package:base':
## 
##     intersect, setdiff, setequal, union

library(ca)

Loading the car evaluation dataset

car_data <- read_excel("C:/Users/prath/Downloads/car.data (2).xlsx")
car_data

## # A tibble: 1,728 x 7
##    Price_Buying Price_Maint Comfort_Doors Comfort_Persons ComfortLub_Boot
##    <chr>        <chr>       <chr>         <chr>           <chr>          
##  1 vhigh        vhigh       2             2               small          
##  2 vhigh        vhigh       2             2               small          
##  3 vhigh        vhigh       2             2               small          
##  4 vhigh        vhigh       2             2               med            
##  5 vhigh        vhigh       2             2               med            
##  6 vhigh        vhigh       2             2               med            
##  7 vhigh        vhigh       2             2               big            
##  8 vhigh        vhigh       2             2               big            
##  9 vhigh        vhigh       2             2               big            
## 10 vhigh        vhigh       2             4               small          
## # ... with 1,718 more rows, and 2 more variables: Safety <chr>,
## #   Class_Values <chr>
…
